--------------------
Date: 2:3:2021
Time: 22:34
Phone number: +50578529838
Message: *Dear X*, What achievement are you proud of but most people would consider silly or weird?
--------------------
Date: 2:3:2021
Time: 22:37
Phone number: +50578529838
Message: *Dear X*, What achievement are you proud of but most people would consider silly or weird?
--------------------
Date: 2:3:2021
Time: 22:41
Phone number: +50578529838
Message: *Dear X*, What achievement are you proud of but most people would consider silly or weird?
--------------------
Date: 2:3:2021
Time: 22:57
Phone number: +50585611514
Message: *Testing this tool with Python* Let us see how it goes..
--------------------
Date: 2:3:2021
Time: 23:6
Phone number: +50585611514
Message: *Testing this tool with Python* Let us see how it goes..
--------------------
Date: 2:3:2021
Time: 23:6
Phone number: +50585611514
Message: *Testing this tool with Python* Let us see how it goes..
--------------------
Date: 2:3:2021
Time: 23:10
Phone number: +50585611514
Message: *Testing this tool with Python* Let us see how it goes..
--------------------
Date: 2:3:2021
Time: 23:13
Phone number: +50585611514
Message: *Testing this tool with Python* Let us see how it goes..
--------------------
Date: 2:3:2021
Time: 23:15
Phone number: +50585611514
Message: *Testing this tool with Python* Let us see how it goes..
--------------------
Date: 2:3:2021
Time: 23:23
Phone number: +50585611514
Message: *Testing this tool with Python* This is the main message.
--------------------
Date: 2:3:2021
Time: 23:43
Phone number: +50585611514
Message: Sending messages with *Python.*
--------------------
Date: 2:3:2021
Time: 23:43
Phone number: +50585611514
Message: Sending messages with *Python.*
--------------------
Date: 2:3:2021
Time: 23:44
Phone number: +50585611514
Message: Sending messages with *Python.*
--------------------
Date: 2:3:2021
Time: 23:43
Phone number: +50585611514
Message: Sending messages with *Python.*
--------------------
Date: 3:3:2021
Time: 0:4
Phone number: +50585611514
Message: Sending messages with *Python.*
--------------------
Date: 3:3:2021
Time: 22:33
Phone number: +50581013234
Message: Hola, amor mio, te escribo desde una app hecha meramente en *Python.*
--------------------
Date: 3:3:2021
Time: 22:35
Phone number: +50581013234
Message: Hola, amor mio, te escribo desde una app hecha meramente en *Python.*
--------------------
Date: 3:3:2021
Time: 22:37
Phone number: +50581013234
Message: Hola, amor mio, te escribo desde una app hecha meramente en *Python.*
--------------------
Date: 3:3:2021
Time: 22:39
Phone number: +50581013234
Message: Hola, amor mio, te escribo desde una app hecha meramente en *Python.*
--------------------
Date: 3:3:2021
Time: 22:44
Phone number: +50581013234
Message: *Python.* es un lenguaje bien solido amor, a mi me encanta.
--------------------
